%YAML 1.1
%TAG !u! tag:unity3d.com,2011:
--- !u!114 &11400000
MonoBehaviour:
  m_ObjectHideFlags: 0
  m_CorrespondingSourceObject: {fileID: 0}
  m_PrefabInstance: {fileID: 0}
  m_PrefabAsset: {fileID: 0}
  m_GameObject: {fileID: 0}
  m_Enabled: 1
  m_EditorHideFlags: 0
  m_Script: {fileID: 11500000, guid: aa89e2e0976ae8e4bb18fa182105a631, type: 3}
  m_Name: PlayerData
  m_EditorClassIdentifier: 
  health: 100
  med: 0
  coin: 0
  itemGalleryUnlocked: 5
  galleryData:
  - {fileID: 11400000, guid: f8be386f0a71aff4d85d5edd7050da23, type: 2}
  - {fileID: 11400000, guid: ac848d7eb75546d4e8f86660a749d4f8, type: 2}
  - {fileID: 11400000, guid: dbad25d84bcdce943a814775a2c462c5, type: 2}
  - {fileID: 11400000, guid: bf747b859bd1d6a4b88012abf6642c02, type: 2}
  - {fileID: 11400000, guid: 37e97a4a04e80534297bcd51e0f662f3, type: 2}
  indexRespawn: 1
  soundVolume: 1
  toogleSound: 1
