%YAML 1.1
%TAG !u! tag:unity3d.com,2011:
--- !u!114 &11400000
MonoBehaviour:
  m_ObjectHideFlags: 0
  m_CorrespondingSourceObject: {fileID: 0}
  m_PrefabInstance: {fileID: 0}
  m_PrefabAsset: {fileID: 0}
  m_GameObject: {fileID: 0}
  m_Enabled: 1
  m_EditorHideFlags: 0
  m_Script: {fileID: 11500000, guid: e144ca7c20e17ce48954b65f5676d80c, type: 3}
  m_Name: AnggrekHitamGalleryData
  m_EditorClassIdentifier: 
  name: ANGGREK HITAM
  sprite: {fileID: 7784548824932188506, guid: f1cd5b6911222ab4eb3a96f8dbb9a495, type: 3}
  description: 'Anggrek hitam termasuk dalam spesies anggrek yang banyak tumbuh di
    semenanjung Malaya, Kalimantan, hingga daratan Papua. Saking terkenalnya, anggrek
    yang mempunyai nama latin Coelogyne pandurata ini menjadi maskot kota Kalimantan
    Timur.


    Anggrek hitam Kalimantan memiliki corak berwarna hijau. Beda halnya
    dengan anggrek hitam Papua, bunga ini memiliki warna yang lebih elegan dan terkesan
    lebih berani.'
  type: 1
  image: {fileID: 21300000, guid: 7cb84521de4825c479de12badd9fdb27, type: 3}
